﻿[
     {
        "_id":"c-10",
        "_parentId":"b-10",
        "_type":"component",
        "_component":"graphic",
        "_classes":"",
        "_layout":"full",
        "title":"Giriş",
        "displayTitle":"",
        "body":"Dönen reklamlar hikaye anlatımı ve markanızın, ürünlerinizin, uygulamalarınızın veya hizmetlerinizin ilgi çekici video ve görsellerini sergileme açısından etkilidir.  Dönen format, Akışlarda sizin için önemli olan insanlara erişebileceğiniz geniş bir kreatif alan sunar.  Dönen format, tüm işletmeler tarafından, çeşitli reklam verme amaçlarına ulaşmak için kullanılabilir.  Bu format, tek bir reklam ünitesinde birden fazla tıklanabilir görsel veya videoya ve bağlantılara yer vermeyi mümkün kılarak işletme hedefinize ulaşmanız için daha fazla esneklik sunar.  İşin en iyi kısmı ise, dönen reklamların Facebook, Instagram ve Audience Network’te kullanılabilmesi sayesinde daha fazla yerde, daha fazla insana erişme olanağı sunmasıdır.",
        "instruction":"",
        "_graphic": {
            "alt": "alternatif metin",
            "src": "course/en/images/01_introduction/victoria_belle.gif"
        },
        "_pageLevelProgress": {
            "_isEnabled": true
        }
    },
    {
        "_id":"c-20",
        "_parentId":"b-20",
        "_type":"component",
        "_component":"animate-message",
        "_classes":"",
        "_layout":"full",
        "title":"Dönen reklamları niçin kullanmalıyım?",
        "displayTitle":"Dönen reklamları niçin kullanmalıyım?",
        "body":"Dönen reklamların niçin etkili olduğunu birlikte öğrenelim.",
        "instruction":"",
        "titleAnimation":"transition.slideRightIn",
        "bodyAnimation":"transition.slideLeftIn",
        "backgroundColor":"#4080ff,#4080ff,#4080ff,#4080ff",
        "_spacing":"20px",
        "_pageLevelProgress": {
            "_isEnabled": true
        },
        "_items": [
            {
                "body":"<div style='padding-left:15px;padding-top:20px; color:#ffffff;'>Dönen reklamlar, birden fazla reklam oluşturmaya gerek kalmadan ürünlerinizin, hizmetlerinizin ve tanıtımlarınızın reklamını yapmak için esnek bir yol sunar.</div>"
            },
            {
                "body":"<div style='padding-left:15px;padding-top:20px; color:#ffffff;'>Dönen reklamlar, reklam yayınını iyileştirir ve dönüşüm başına ücretinizi düşürebilir.</div>"
            },
            {
                "body":"<div style='padding-left:15px;padding-top:20px; color:#ffffff;'>Dönen reklamlar oldukça ilgi çekici bir deneyim sunar.</div>"
            },
            {
                "body":"<div style='padding-left:15px;padding-top:20px; color:#ffffff;'>Dönen format, belirli bir reklam ünitesinde birden fazla görsel sergilemenize olanak tanıdığı için insanları sitenizdeki farklı sayfalara yönlendirebilirsiniz.</div>"
            }
        ]
    },
    {
        "_id":"c-21",
        "_parentId":"b-20",
        "_type":"component",
        "_component":"text",
        "_classes":"",
        "_layout":"full",
        "title":"",
        "displayTitle":"",
        "body":"Facebook, buna ek olarak hedeflenen her bireye yönelik alaka düzeyini temel alarak dönen reklam içindeki görsellerin sırasını optimize edebilir.<br><br>Dönen formatı dinamik reklamlarla birlikte kullanma seçeneği de mevcuttur. Reklamverenler, dinamik reklamlar sayesinde kataloglarında yer alan alakalı ürünlerin tanıtımını otomatik olarak yapabilir ve site veya mobilde tek bir reklam ünitesi içinde 30 adede kadar ürünü sergileyebilir.",
        "instruction":"",
        "_pageLevelProgress": {
            "_isEnabled": false
        }
    },
    {
        "_id": "c-90",
        "_parentId": "b-90",
        "_type": "component",
        "_component": "co-jump",
        "_classes": "color-test",
        "_preLinkBody": "Şimdi, sıradaki konumuza ilişkin bazı örneklere göz atalım: ",
        "_linkBody": "İşletmeler Dönen Formatı Nasıl Kullanabilir",
        "_postLinkBody": "?",
        "_link": "#/id/co-100",
        "_graphic": "adapt/css/assets/icon_nextPage.png",
        "_pageLevelProgress": {
            "_isEnabled": false
        }
    },
    {
        "_id":"c-100",
        "_parentId":"b-100",
        "_type":"component",
        "_component":"text",
        "_classes":"",
        "_layout":"full",
        "title":"Neredeyse tüm reklam verme amaçlarına uygundur",
        "displayTitle":"",
        "body":"Dönen reklamlar, müşteri kazanmadan değerlendirme ve dönüşüme kadar pazarlama hunisinin tüm bölümlerinde kullanılabilir ve çok çeşitli işletme hedeflerini destekleyebilir.  Örneğin reklamverenler Marka Bilinirliği, İnternet Sitesine Tıklamalar veya Ürün Kataloğu Satışları reklam verme amaçlarını desteklemek için bir dönen reklam kullanabilir.  Ayrıca, dönen reklamdan internet sitesi, mobil uygulama veya potansiyel müşteri formu gibi her tür yönlendirme hedefine bağlantı verebilir. Dolayısıyla, neredeyse tüm işletmeler, reklamverenler veya reklam verme amaçları için doğru seçimdir.",
        "instruction":"",
        "_pageLevelProgress": {
            "_isEnabled": true
        }
    },
    {
        "_id":"c-110",
        "_parentId":"b-110",
        "_type":"component",
        "_component":"text",
        "_classes":"",
        "_layout":"full",
        "title":"Dönen formatı kullanmanın farklı yolları",
        "displayTitle":"Dönen formatı kullanmanın farklı yolları",
        "body":"Dönen format, tek bir reklam ünitesinde birden fazla görsel veya video sergileme özelliğine de sahiptir. Tek bir reklam ünitesinde daha fazla kreatif alanına sahip olmak, reklamverenler için işletmeleri ve ürünleri hakkında bilgi paylaşmak ve farklı hedeflere ulaşmak üzere daha fazla fırsat yaratır.  Reklamverenlerin potansiyel müşterilerinin dikkatini çekmek için dönen formatı kullanabilecekleri farklı yolları burada bulabilirsiniz.",
        "instruction":"",
        "_pageLevelProgress": {
            "_isEnabled": true
        }
    },
    {
        "_id":"c-111",
        "_parentId":"b-110",
        "_type":"component",
        "_component": "survey-radio",
        "_classes": "",
        "_layout": "full",
        "title": "İncelemek istediğiniz bir konu seçme",
        "displayTitle": "",
        "body": "İncelemek istediğiniz bir konuyu seçin.",
          "instruction": "",
        "_pageLevelProgress": {
                "_isEnabled": true
        },
        "_isComplete": false,
        "userSelection": [],
        "_items": [
          {
            "label": "Çeşitli ürünleri sergileme",
            "value": "1"
          },
          {
            "label": "Hikaye anlatımı",
            "value": "2"
          },
          {
            "label": "Panoramik",
            "value": "3"
          },
          {
            "label": "Tek bir ürünün birden fazla özelliğini/avantajını öne çıkarma",
            "value": "4"
          },
          {
            "label": "Bir süreci açıklama/gösterme",
            "value": "5"
          },
          {
            "label": "Sunduğunuz avantajları satma",
            "value": "6"
          }
        ]
      },
      {
        "_id":"c-120",
        "_parentId":"b-120",
        "_type": "component",
        "_component": "survey-feedback",
        "_classes": "",
        "_layout": "full",
        "title": "",
        "displayTitle": "",
        "body": "",
          "instruction": "",
        "_pageLevelProgress": {
                "_isEnabled": false
        },
        "_isComplete": false,
        "feedbackBody": "",
        "feedbackPostBody": "",
        "prefix": "",
        "suffix": "",
        "limitFeedback": true,
        "feedback": [
          {
            "resultsFor": ["c-111"],
            "condition": "is",
            "value": "1",
            "response": "<b>Çeşitli ürünleri sergileme</b> – Her dönen kartta farklı yönlendirme sayfalarına bağlantı veren farklı bir ürün göstererek müşterilere daha fazla seçenek sunun ve onları alışveriş yapmaya teşvik edin.<br><img src='course/en/images/02_businesses_use_carousel/jaspers.png'>"
          },
          {
            "resultsFor": ["c-111"],
            "condition": "is",
            "value": "2",
            "response": "<b>Hikaye anlatımı</b> – Markanız hakkında, her dönen kartta aşamalı olarak gelişen bir hikaye anlatın.  Hikayenizi ilgi çekici şekilde anlatmak için dönen kartlarda birbirini takip eden görseller veya videolar kullanmaya çalışın.<br><img src='course/en/images/02_businesses_use_carousel/love_found.png'>"
          },
          {
            "resultsFor": ["c-111"],
            "condition": "is",
            "value": "3",
            "response": "<b>Panoramik</b> – Her dönen kartı ürünün farklı açılarını göstermek ve belirli özelliklerine yakından bakmak için kullanarak müşterileri ürün hakkında daha iyi bilgilendirin.<br><img src='course/en/images/02_businesses_use_carousel/akemia_west.png'>"
          },
          {
            "resultsFor": ["c-111"],
            "condition": "is",
            "value": "4",
            "response": "<b>Tek bir ürünün birden fazla özelliğini/avantajını öne çıkarma</b> – Görselleri ve/veya videoları kullanarak ürünü satın almanın sunacağı avantajları veya sonuçları gösterin.<br><img src='course/en/images/02_businesses_use_carousel/original_coast_clothing.png'>"
          },
          {
            "resultsFor": ["c-111"],
            "condition": "is",
            "value": "5",
            "response": "<b>Bir süreci açıklama/gösterme</b> – İşletmenizin sunduğu avantajları açıklamak için insanlara bir süreci adım adım anlatın.<br><img src='course/en/images/02_businesses_use_carousel/global_voyager_air.png'>"
          },
          {
            "resultsFor": ["c-111"],
            "condition": "is",
            "value": "6",
            "response": "<b>Sunduğunuz avantajları satma</b> – Görselleri ve/veya videoları kullanarak ürünü satın almanın sunacağı avantajları gösterin.<br><img src='course/en/images/02_businesses_use_carousel/downtown_bank.png'>"
          }
       ]
    },
    {
        "_id": "c-130",
        "_parentId": "b-130",
        "_classes": "",
        "_type":"component",
        "_layout": "full",
        "_component": "narrative",
        "title": "Dönen reklamlarla faydalı sonuçlar elde etme",
        "displayTitle": "Dönen reklamlarla faydalı sonuçlar elde etme",
        "body": "Dönen reklamlarla faydalı sonuçlar elde etmeye ilişkin bazı ipuçlarını burada bulabilirsiniz. Bir bilgisayardaysanız anlatım boyunca ilerlemek için ileri oklarına tıklayın, mobil cihazlarda ise aynı şeyi yapmak için görselleri kaydırıp artı simgelerini seçin.",
        "instruction": "",
        "_setCompletionOn": "inview",
        "_pageLevelProgress": {
            "_isEnabled": true
        },
        "_items": [
            {
                "title": "Markanız veya ürünleriniz için daha önce faydalanmış olabileceğiniz kreatiflerden faydalanın.",
                "body": "Reklam kreatifiniz için ürün kataloglarınızdaki mevcut görselleri kullanmayı düşünün.",
                "_graphic": {
                    "src": "course/en/images/02_businesses_use_carousel/pura_vida1.png",
                    "alt": "Mevcut kreatif",
                    "title": "Mevcut kreatif"
                },
                "strapline": "Mevcut kreatif"
            },
            {
                "title": "Veya mevcut Instagram hesabınızdaki fotoğrafları kullanın.",
                "body": "",
                "_graphic": {
                    "src": "course/en/images/02_businesses_use_carousel/pura_vida2.png",
                    "alt": "Instagram fotoğrafları",
                    "title": "Instagram fotoğrafları"
                },
                "strapline": "Instagram fotoğrafları"
            },
            {
                "title": "Videolar, fotoğraflar ve sinemagraflar",
                "body": "Döngü ünitesinde bir hikayeye hayat vermek için video ve görselleri birlikte kullanmayı düşünün.  Alternatif olarak, dönen kartlarınızda göz alıcı sinemagraflar kullanabilirsiniz.",
                "_graphic": {
                    "video":"<video width='500' height='380' controls><source src='course/en/images/02_businesses_use_carousel/carousel_fb4b.mp4' type='video/mp4' type='video/mp4'><source src='course/en/images/02_businesses_use_carousel/carousel_fb4b.mp4' type='video/mp4'>Your browser does not support the video tag.</video>",
                    "src": "",
                    "alt": "Videolar, fotoğraflar ve sinemagraflar",
                    "title": "Videolar, fotoğraflar ve sinemagraflar"
                },
                "strapline": "Videolar, fotoğraflar ve sinemagraflar"
            },
            {
                "title": "Eylem çağrısı",
                "body": "İnsanları eylemde bulunmaya teşvik etmek için güçlü bir eylem çağrısı düğmesi ekleyin.",
                "_graphic": {
                    "src": "course/en/images/02_businesses_use_carousel/ifonly_cta.png",
                    "alt": "Eylem çağrısı",
                    "title": "Eylem çağrısı"
                },
                "strapline": "Eylem çağrısı"
            }
        ]
    },
    {
        "_id":"c-140",
        "_parentId":"b-140",
        "_type":"component",
        "_component":"text",
        "_classes":"",
        "_layout":"full",
        "title":"Müşterileri bilinirlik düzeyinden işlem düzeyine taşımak için diğer reklam üniteleriyle birlikte kullanın",
        "displayTitle":"",
        "body":"<h2>Müşterileri bilinirlik düzeyinden işlem düzeyine taşımak için diğer reklam üniteleriyle birlikte kullanın</h2><br>Hikayenizi anlatmak için kreatifi birlikte sıralamayı düşünün.  Örneğin, marka bilinirliğini artırmak için bir video ile başlayabilirsiniz.  Ardından, videoyu izleyen kişileri internet sitenize çekmek için başka bir reklamla yeniden hedefleyin.  İnternet sitenizi ziyaret etmelerinin ardından bu kişileri yeniden hedefleyerek onlara ilgi gösterdikleri ürünleri gösterebilir ve eylem çağrısı düğmesiyle alışveriş sepetlerindeki ürünleri satın almaya teşvik edebilirsiniz. Böylelikle, müşteri kazanma aşamasından işlem aşamasına geçmiş olursunuz.",
        "instruction":"",
        "_pageLevelProgress": {
            "_isEnabled": true
        }
    },
    {
        "_id":"c-141",
        "_parentId":"b-140",
        "_type":"component",
        "_component":"canvas-animation",
        "_classes":"",
        "_layout":"full",
        "title":"",
        "displayTitle":"",
        "animationName":"TestAnimation3",
        "animation":"course/en/animations/test/testAnimation3.js",
        "body":"<br><br><div id='TestAnimation3'></div>",
        "_resources": {
            "farleftImage":"course/en/images/02_businesses_use_carousel/awareness.png",
            "leftImage":"course/en/images/02_businesses_use_carousel/demand_generation.png",
            "centerImage":"course/en/images/02_businesses_use_carousel/acquisition.png",
            "rightImage":"course/en/images/02_businesses_use_carousel/transaction.png",
            "farleftText":"Bilinirlik",
            "leftText":"Talep Oluşturma",
            "centerText":"Yeni Müşteri Kazanma",
            "rightText":"İşlem"
        },
        "instruction":"",
        "_pageLevelProgress": {
            "_isEnabled": false
        }
    },
    {
        "_id": "c-190",
        "_parentId": "b-190",
        "_type": "component",
        "_component": "co-jump",
        "_classes": "color-test",
        "_preLinkBody": "Dönen reklamların işletmenize ne gibi faydalar sunabileceğini gördüğünüze göre, bu reklamları oluştururken kullanabileceğiniz bazı  ",
        "_linkBody": "İpuçları ve Önemli Noktalar",
        "_postLinkBody": " üzerinde duralım.",
        "_link": "#/id/co-150",
        "_graphic": "adapt/css/assets/icon_nextPage.png",
        "_pageLevelProgress": {
            "_isEnabled": false
        }
    },
    {
        "_id":"c-200",
        "_parentId":"b-200",
        "_type":"component",
        "_component":"text",
        "_classes":"",
        "_layout":"left",
        "title":"Önemli Noktalar",
        "displayTitle":"Önemli Noktalar",
        "body":"Dönen reklamınızı oluşturmadan önce üzerinde düşünmeniz gereken bazı sorular:<br><br><ul><li>İşletmenizi benzersiz kılan şey nedir?</li><li>Dönen reklamlarla işletme hedefinize nasıl ulaşmak istiyorsunuz?<ul><li>Tek bir ürün mü satmak istiyorsunuz, yoksa birden fazla ürün mü?</li><li>Uygulamanız veya hizmetinizle ilgili bilinirlik oluşturmak mı istiyorsunuz?</li><li>Yoksa müşterileri genel olarak markanız ve teklifleriniz hakkında bilgilendirmek mi istiyorsunuz?</li></ul></li><li>Son kartta neyi göstermek istiyorsunuz?  Logonuzu kullanmak istiyor musunuz?  Son yönlendirme hedefi neresi?</li><li>Potansiyel müşterilerinizin reklamı gördükten sonra hangi eylemde bulunmasını istiyorsunuz?  Hangi eylem çağrısı düğmesini seçeceksiniz?</li></ul><br><br>Ulaşmak istediğiniz hedefin ne olduğu konusunda daha iyi fikre sahip olduğunuzda, dönen reklamınızın kreatifi üzerinde düşünmeye başlayabilirsiniz.",
        "instruction":"",
        "_pageLevelProgress": {
            "_isEnabled": true
        }
    },
    {
        "_id":"c-201",
        "_parentId":"b-200",
        "_type":"component",
        "_component":"graphic",
        "_classes":"",
        "_layout":"right",
        "title":"",
        "displayTitle":"",
        "body":"",
        "instruction":"",
        "_graphic": {
            "alt": "alternatif metin",
            "src": "course/en/images/03_considerations_tips/ifonly_carousel_video.gif"
        },
        "_pageLevelProgress": {
            "_isEnabled": false
        }
    },
    {
        "_id":"c-210",
        "_parentId":"b-210",
        "_type":"component",
        "_component":"text",
        "_classes":"",
        "_layout":"full",
        "title":"Kreatifler için ipuçları",
        "displayTitle":"Kreatifler için ipuçları",
        "body":"Facebook, Instagram ve Audience Network’teki reklam verme amaçlarıyla güzel ve ilgi çekici reklam kreatifleri tasarlamaya yönelik bazı ipuçlarını burada bulabilirsiniz.<br><br><br><img src='course/en/images/03_considerations_tips/harleydavidson_australia.png'><br><br><br><b>Kalıpların dışına çıkın.</b><br>Döngü ünitesini beklenmedik ve göz alıcı biçimlerde kullanmayı düşünün. Dönen reklamı dikey olarak kullanmayı hiç düşündünüz mü?<br><br><b>Mesajınızı kısa ve net tutun.</b><br>Mesajınızı kısa ve net tutacaksa, daha az sayıda kart kullanmak bazen daha mantıklı olabilir.<br><br><b>Tutarlı görseller kullanarak insanların parmaklarını durdurmasını sağlayın.</b><br>İnsanların akışta gezinirken durarak etkileşime geçmesini sağlayacak güçlü kreatifler kullanın. Tüm dönen kartlarınızda tutarlı görünecek kreatifler geliştirin.  Dikkatlice oluşturulmuş güçlü odak noktasına sahip görseller kullanın.<br><br><b>En iyi performans gösteren dönen kartlarınızı en başa yerleştirin.</b><br>Çoğu durumda, hedef kitlenizin dikkatini çekmek için en iyi performans gösteren dönen kartları en başta göstermek mantıklıdır.<br><br><b>Hedef kitlenizi harekete geçirmek için görsel işaretler kullanın.</b><br>Hedef kitlenizi dönen kartlar üzerinde ilerleyerek kreatifinizin geri kalanını görmeye teşvik etmek için birbiriyle bağlantılı görseller veya görsel işaretler kullanın.<br><br><b>Metni unutmayın.</b><br>Metin, kreatifinize ek değer katabilir. Bağlam ve ayrıntı sunan ve insanların dikkatini çeken canlı başlıklar ve açıklamalar kullanın. Ayrıca, metni birden fazla karta yayabilirsiniz.<br><br><b>Güçlü bir eylem çağrısı kullanın.</b><br>Kampanyanızla bağlantılı bir eylem çağrısı düğmesi kullanın.",
        "instruction":"",
        "_pageLevelProgress": {
            "_isEnabled": true
        }
    },
    {
        "_id": "c-290",
        "_parentId": "b-290",
        "_type": "component",
        "_component": "co-jump",
        "_classes": "color-test",
        "_preLinkBody": "Şimdi inceleyeceğimiz ",
        "_linkBody": "Başarı Hikayeleri",
        "_postLinkBody": " ile işletmelerin dönen formatı nasıl kullandıklarını görelim.",
        "_link": "#/id/co-200",
        "_graphic": "adapt/css/assets/icon_nextPage.png",
        "_pageLevelProgress": {
            "_isEnabled": false
        }
    },
    {
        "_id":"c-300",
        "_parentId":"b-300",
        "_type":"component",
        "_component":"text",
        "_classes":"",
        "_layout":"left",
        "title":"Las Vegas",
        "displayTitle":"Las Vegas",
        "body":"Las Vegas turizm bürosu, tatil ve iş amaçlı seyahat ve eğlence açısından şehri dünyanın en çekici noktası olarak tanıtmak istiyordu. Las Vegas Kongre ve Ziyaretçi Bürosu, ziyaretçilerin ilgisini çekmek için Instagram dönen reklamından yaratıcı şekilde faydalanarak dönen kartlarda Las Vegas şeridinin panoramik bir görüntüsünü kullandı.<br><br><cite><a href='https://www.facebook.com/business/success/lvcva' target='_blank'>Las Vegas Kongre ve Ziyaretçi Bürosu – Facebook Başarı Hikayeleri</a></cite>",
        "instruction":"",
        "_pageLevelProgress": {
            "_isEnabled": true
        }
    },
   {
        "_id":"c-301",
        "_parentId":"b-300",
        "_type":"component",
        "_component":"framed-video",
        "_classes":"",
        "_layout":"right",
        "title":"",
        "displayTitle":"",
        "body":"",
        "_videoPt":{"x":"0px","y":"0px"},
        "_componentHeight":"600px",
        "isControls":"true",
        "autoPlay":"true",
        "loop": "true",
        "poster": "course/en/images/04_success_stories/vegas_poster.png",
        "_items": [
            {
                "video":  "<video id='vid' width='276px'><source src='course/en/images/04_success_stories/vegas.mp4' type='video/mp4'></video>"
            }
        ]
    },
    {
        "_id":"c-310",
        "_parentId":"b-310",
        "_type":"component",
        "_component":"text",
        "_classes":"",
        "_layout":"left",
        "title":"Target",
        "displayTitle":"Target",
        "body":"Target Style, Marimekko ürün gamının tanıtımını yapmak için bir Facebook video dönen reklamını kullanarak sürükleyici “panoramik” stil noktaları yarattı.  Renkli, yaratıcı ve ilgi çekici videolarda ev koleksiyonu ve moda ürünleri, müşterilerin tıklayarak doğrudan Marimekko ürünlerine gitmelerine olanak tanıyacak şekilde sergilendi.<br><br><cite><a href='https://www.facebook.com/ads/creativehub/gallery/192100421232801' target='_blank'>Target Style – Kreatif Merkezi</a></cite>",
        "instruction":"",
        "_pageLevelProgress": {
            "_isEnabled": true
        }
    },
   {
        "_id":"c-311",
        "_parentId":"b-310",
        "_type":"component",
        "_component":"framed-video",
        "_classes":"",
        "_layout":"right",
        "title":"",
        "displayTitle":"",
        "body":"",
        "_videoPt":{"x":"0px","y":"0px"},
        "_componentHeight":"600px",
        "isControls":"true",
        "autoPlay":"true",
        "loop": "true",
        "poster": "course/en/images/04_success_stories/target_poster.png",
        "_items": [
            {
                "video":  "<video id='vid' width='276px'><source src='course/en/images/04_success_stories/target.mp4' type='video/mp4'></video>"
            }
        ]
    },
    {
        "_id":"c-320",
        "_parentId":"b-320",
        "_type":"component",
        "_component":"text",
        "_classes":"",
        "_layout":"left",
        "title":"Sonic",
        "displayTitle":"Sonic",
        "body":"Kare kaplarda servis edilen Sonic sütlü içecekleri, şirketin #SquareShakes reklam kampanyasındaki “Hemen Al” eylem çağrısı düğmesi aracılığıyla Coachella festivaline gidenlere sunuldu. Kampanyanın amacı, Y kuşağına mensup kişilerden oluşan hedef kitleyle etkileşime geçerek satın aldıkları içeceklerin görsellerini Instagram’da paylaşmaya teşvik etmekti.<br><br><cite><a href='https://www.facebook.com/ads/creativehub/gallery/1293117720713163' target='_blank'>Sonic #SquareShakes – Kreatif Merkezi</a></cite>",
        "instruction":"",
        "_pageLevelProgress": {
            "_isEnabled": true
        }
    },
{
        "_id":"c-321",
        "_parentId":"b-320",
        "_type":"component",
        "_component":"framed-video",
        "_classes":"",
        "_layout":"right",
        "title":"",
        "displayTitle":"",
        "body":"",
        "_videoPt":{"x":"13px","y":"73px"},
        "_componentHeight":"600px",
        "isControls":"true",
        "autoPlay":"true",
        "loop": "true",
        "poster": "course/en/images/04_success_stories/sonic_poster.png",
        "_items": [
            {
                "video":  "<video id='vid' width='276px'><source src='course/en/images/04_success_stories/sonic.mp4' type='video/mp4'></video>"
            }
        ]
    },
    {
        "_id":"c-330",
        "_parentId":"b-330",
        "_type":"component",
        "_component":"text",
        "_classes":"",
        "_layout":"left",
        "title":"BMW UK",
        "displayTitle":"BMW UK",
        "body":"BMW, 5 serisinin özelliklerini sergilemek için dönen formatı kullandı ve Facebook potansiyel müşteri reklamlarını kullanarak potansiyel müşterilerin ilgisini çekti.  Şirketin amacı insanların test sürüşleri hakkında bilgi almasını ve broşür talep etmesini sağlamaktı.<br><br><cite><a href='https://www.facebook.com/business/success/bmw-uk' target='_blank'>BMW UK – Facebook Başarı Hikayeleri</a></cite>",
        "instruction":"",
        "_pageLevelProgress": {
            "_isEnabled": true
        }
    },
    {
        "_id":"c-331",
        "_parentId":"b-330",
        "_type":"component",
        "_component":"framed-video",
        "_classes":"",
        "_layout":"right",
        "title":"BMW UK videosu",
        "displayTitle":"",
        "body":"",
        "_videoPosition":"top",
        "_componentHeight":"600px",
        "_videoPt":{"x":"0px","y":"0px"},
        "instruction":"",
        "_items": [
            {
                "video":  "<video controls id='vid' width='280px' controls='controls'><source src='course/en/images/04_success_stories/bmw_uk.mp4' type='video/mp4'></video>"
            }
        ]
    },
    {
        "_id":"c-340",
        "_parentId":"b-340",
        "_type":"component",
        "_component":"text",
        "_classes":"",
        "_layout":"left",
        "title":"OPI",
        "displayTitle":"OPI",
        "body":"OPI, sonbahar/kış oje koleksiyonu için heyecan yaratmak amacıyla göz alıcı tırnak boyama videoları ve ürün resimlerine yer veren dönen reklamlar kullandı.<br><br><cite><a href='https://www.facebook.com/business/success/opi' target='_blank'>OPI – Facebook Başarı Hikayeleri</a></cite>",
        "instruction":"",
        "_pageLevelProgress": {
            "_isEnabled": true
        }
    },
    {
        "_id":"c-341",
        "_parentId":"b-340",
        "_type":"component",
        "_component":"framed-video",
        "_classes":"",
        "_layout":"right",
        "title":"OPI Facebook videosu",
        "displayTitle":"",
        "body":"",
        "_videoPosition":"top",
        "_componentHeight":"600px",
        "_videoPt":{"x":"0px","y":"0px"},
        "instruction":"",
        "_items": [
            {
                "video":  "<video controls id='vid' width='320px' controls='controls'><source src='course/en/images/04_success_stories/opi_fb.mp4' type='video/mp4'></video>"
            }
        ]
    },
    {
        "_id":"c-350",
        "_parentId":"b-350",
        "_type":"component",
        "_component":"text",
        "_classes":"",
        "_layout":"left",
        "title":"Kabam",
        "displayTitle":"Kabam",
        "body":"Kabam, Marvel Şampiyonlar Turnuvası oyununun tanıtımını yapmak amacıyla dönen kartları kullanarak Marvel evreninin karakterlerine hayat verdi.  Kabam reklamlarında sadece hikaye anlatmak için değil, oyunun gerçek konusunu sergilemek için de dönen reklamları kullandı. Döngüler, insanları uygulamayı indirip oyundaki savaşlara katılmaya teşvik eden kısa ve eğlenceli yorumlara yer verdi.<br><br><cite><a href='https://www.facebook.com/business/success/kabam' target='_blank'>Kabam – Facebook Başarı Hikayeleri</a></cite>",
        "instruction":"",
        "_pageLevelProgress": {
            "_isEnabled": true
        }
    },
    {
        "_id":"c-351",
        "_parentId":"b-350",
        "_type":"component",
        "_component":"framed-video",
        "_classes":"",
        "_layout":"right",
        "title":"Kabam Facebook videosu",
        "displayTitle":"",
        "body":"",
        "_videoPosition":"top",
        "_componentHeight":"600px",
        "_videoPt":{"x":"0px","y":"0px"},
        "instruction":"",
        "_items": [
            {
                "video":  "<video controls id='vid' width='320px' controls='controls'><source src='course/en/images/04_success_stories/kabam.mp4' type='video/mp4'></video>"
            }
        ]
    },
    {
        "_id": "c-390",
        "_parentId": "b-390",
        "_type": "component",
        "_component": "co-jump",
        "_classes": "color-test",
        "_preLinkBody": "Şimdi de ",
        "_linkBody": "Adım Adım",
        "_postLinkBody": " dönen reklamların nasıl oluşturulduğuna bakalım.",
        "_link": "#/id/co-250",
        "_graphic": "adapt/css/assets/icon_nextPage.png",
        "_pageLevelProgress": {
            "_isEnabled": false
        }
    },
    {
        "_id":"c-400",
        "_parentId":"b-400",
        "_type":"component",
        "_component":"text",
        "_classes":"",
        "_layout":"full",
        "title":"Dönen reklam teknik özellikleri",
        "displayTitle":"Dönen reklam teknik özellikleri",
        "body":"Dönen reklamlar Facebook, Instagram ve Audience Network’te kullanılabilir.  Aynı dönen reklamı hem Instagram hem de Facebook’ta yayınlayabilirsiniz. Reklam ünitesinin bu iki platformdaki görünümlerinde küçük farklılıklar olacağını göz önünde bulundurun.<br><br><table class='table-style-1' style='font-size:16px;'><thead><tr><th width='20%'> </th><th width='40%'>Facebook Dönen Reklamları</th><th width='40%'>Instagram Dönen Reklamları</th></tr></thead><tbody><tr><th>Reklam Verme Amaçları</th><td style='font-size:16px'>Marka Bilinirliği, Yerel Bilinirlik, Erişim, Trafik, Etkileşim, Uygulama Yüklemeleri, Video Görüntülemeleri, Potansiyel Müşteriler Bulma, Dönüşümler, Ürün Kataloğu Satışları, Mağaza Ziyaretleri</td><td style='font-size:16px'>Marka Bilinirliği, Yerel Bilinirlik, Erişim, Trafik, Uygulama Yüklemeleri, Video Görüntülemeleri, Dönüşümler, Ürün Kataloğu Satışları</td></tr><tr><th>Medya Türleri</th><td  style='font-size:16px'>Fotoğraflar, Videolar</td><td style='font-size:16px'>Fotoğraflar, Videolar</td></tr><tr><th>Dosya Türleri</th><td  style='font-size:16px'>Fotoğraflar: .jpg veya .png<br>Videolar: .mp4 veya .mov (tavsiye edilen)</td><td style='font-size:16px'>Fotoğraflar: .jpg veya .png<br>Videolar: .mp4 veya .mov (tavsiye edilen)</td></tr><tr><th>En Boy Oranı</th><td style='font-size:16px'>1:1</td><td style='font-size:16px'>1:1</td></tr><tr><th>Çözünürlük</th><td style='font-size:16px'>Minimum:  600 x 600 piksel<br>Maksimum:  1080 x 1080 piksel</td><td style='font-size:16px'>Minimum:  600 x 600 piksel<br>Maksimum:  1080 x 1080 piksel</td></tr><tr><th>Kartlar</th><td style='font-size:16px'>2 ila 10 görsel veya video, her bir kartta benzersiz bağlantılar, reklamın tamamında aynı eylem çağrısı<br><br><i>Not:</i> Dönen bağlantı reklamında dinamik reklamları kullanırken 30 adede kadar ürün sergileyebilirsiniz.</td><td style='font-size:16px'>2 ila 10 görsel veya video, her bir kartta benzersiz bağlantılar, reklamın tamamında aynı eylem çağrısı</td></tr><tr><th>Metin</th><td style='font-size:16px'>Metin: 500 karakter<br>Başlık: 40 karakter<br>Bağlantı açıklaması: 20 karakter</td><td style='font-size:16px'>Metin: 90 karakter<br>Başlık: 40 karakter<br>Bağlantı açıklaması: 20 karakter</td></tr><tr><th>Görünen Format</th><td style='font-size:16px'>Takip eden kartlar kısmen görünür</td><td style='font-size:16px'>Aynı anda 1 kart görünür, diğer bölümler ekran dışında kalır</td></tr><tr><th class='text-left'>Son Kart</th><td style='font-size:16px'>İsteğe Bağlı</td><td style='font-size:16px'>Yok</td></tr><tr><th>Kart Optimizasyonu</th><td style='font-size:16px'>Görsel veya video sıralamasının optimizasyonunu Facebook’a bırakabilirsiniz</td><td style='font-size:16px'>Yok - kartlar, belirtilen sırada gösterilir</td></tr><tr><th>Açıklama</th><td style='font-size:16px'>Reklamın tamamında 1 açıklama, ayrıca her bir kart için benzersiz başlık ve bağlantı açıklaması</td><td style='font-size:16px'>Reklam oluşturma akışında “Başlıklar” aracılığıyla izin verilen, kart başına özel açıklama</td></tr><tr><th>Eylem çağrıları</th><td style='font-size:16px'>Şimdi Başvur, Şimdi Rezervasyon Yap, Bizimle İletişime Geç, İndir, Şimdi Yükle, Daha Fazla Bilgi Al, Bağlantıyı Aç, Oyna, Uygulamayı Kullan, Şimdi Alışveriş Yap, Kaydol, Daha Fazla İzle, Videoyu İzle<br><br>(Kullanabileceğiniz eylem çağrıları, reklam verme amacınıza göre değişiklik gösterir)</td><td style='font-size:16px'>Şimdi Başvur, Şimdi Rezervasyon Yap, Bizimle İletişime Geç, İndir, Daha Fazla Bilgi Al, Randevu Talep Et, Menüyü Gör, Oyna, Uygulamayı Kullan, Şimdi Alışveriş Yap, Kaydol, Daha Fazla İzle<br><br>(Kullanabileceğiniz eylem çağrıları, reklam verme amacınıza göre değişiklik gösterir)</td></tr></tbody></table><br><br><i>*Hem Instagram hem de Facebook’ta yayınlanan reklam setlerinde “Düğme Yok” seçeneğini tercih ederseniz, reklamınız Facebook’ta eylem çağrısı düğmesi olmadan, Instagram’da ise varsayılan olarak “Daha Fazla Bilgi Al” eylem çağrısıyla görüntülenir. Kullanıcıların reklamınızın tıklanabilir olduğunu görebilmesi için, Instagram’da eylem çağrısı düğmeleri zorunludur.</i>",
        "instruction":"",
        "_pageLevelProgress": {
            "_isEnabled": true
        }
    },
    {
        "_id":"c-410",
        "_parentId":"b-410",
        "_type":"component",
        "_component": "survey-radio",
        "_classes": "",
        "_layout": "full",
        "title": "Dönen reklamınızı oluşturma",
        "displayTitle": "Dönen reklamınızı oluşturma",
        "body": "Sayfanızdan veya etkinliğinizden ya da Reklam Yöneticisi’ni veya Power Editor’ı kullanarak dönen formatta reklamlar oluşturabilirsiniz.<br><br>Nasıl olduğunu öğrenmek için dönen reklamınızı oluştururken kullanmak istediğiniz yöntemi seçin.",
          "instruction": "",
        "_pageLevelProgress": {
             "_isEnabled": true
        },
        "_isComplete": false,
        "userSelection": [],
        "_items": [
          {
            "label": "Sayfanızdan",
            "value": "1"
          },
          {
            "label": "Reklam Yöneticisi’nden",
            "value": "2"
          },
          {
            "label": "Power Editor’dan",
            "value": "3"
          }
        ]
      },
      {
        "_id":"c-415",
        "_parentId":"b-410",
        "_type": "component",
        "_component": "survey-feedback",
        "_classes": "",
        "_layout": "full",
        "title": "",
        "displayTitle": "",
        "body": "",
          "instruction": "",
        "_pageLevelProgress": {
                "_isEnabled": false
        },
        "_isComplete": false,
        "feedbackBody": "",
        "feedbackPostBody": "",
        "prefix": "",
        "suffix": "",
        "limitFeedback": true,
        "feedback": [
          {
            "resultsFor": ["c-410"],
            "condition": "is",
            "value": "1",
            "response": "<h2>Sayfanızdan dönen reklam oluşturma</h2><br><ol><li><b>Tanıtım Yap</b> düğmesine tıklayın ve ardından açılır menüden <b>İnternet Siteni Öne Çıkar</b>’ı seçin.<img src='course/en/images/05_step_by_step/page_step_1.png'></li><br><li>Normalde yaptığınız gibi <b>Hedef Kitle</b>, <b>Bütçe ve Süre</b> ve <b>Reklam Ödemesi</b> kısımlarıyla ilgili bilgileri doldurun.</li><li>Ardından, Reklam Kreatifi’nin yanındaki <b>Düzenle</b> düğmesine tıklayın.</li><img src='course/en/images/05_step_by_step/page_steps_2-3.png'><li>İnsanların reklamınıza tıkladığında yönlendirilmesini istediğiniz internet adresini (URL) girin.</li><li>Reklamınızın metnini girin.</li><img src='course/en/images/05_step_by_step/page_steps_4-9.png'><li>Dönen reklamınızda yer almasını istediğiniz kart sayısını eklemek için <b>+</b> düğmesine tıklayın.</li><li>Her kart için bir başlık ekleyin.</li><li>Aşağıdaki yöntemlerden birini kullanarak döngü ünitenize görseller ekleyebilirsiniz:<ul><li><b>Yükle</b> düğmesine tıklayarak bilgisayarınızdan görsel dosyaları ekleyin.</li><li><b>Görsel Seç</b> düğmesine tıklayarak daha önce reklamları oluştururken yüklediğiniz görsel kitaplığından görseller seçin.</li></ul>Görseli kırpabilir veya <b>Görseli Yeniden Konumlandır</b> düğmesine tıklayarak yeniden konumlandırabilirsiniz.</li><li>Ardından, <b>Öne Çıkar</b> düğmesine tıklayarak reklamınızı oluşturmayı tamamlayın.</li></ol>"
          },
          {
            "resultsFor": ["c-410"],
            "condition": "is",
            "value": "2",
            "response": "<h2>Reklam Yöneticisi’nde dönen reklam oluşturma</h2><br><ol><li>Dönen formatı destekleyen bir reklam verme amacı seçin.</li><li>Format kısmında <b>Döngü</b>’yü seçin.</li><img src='course/en/images/05_step_by_step/am_step_2.png'><li><b>En iyi performans gösteren kartları otomatik olarak başta göster</b> onay kutusu varsayılan olarak işaretlenir.  Reklamdaki dönen kartların performans sırasına göre görüntülenmesini istiyorsanız, bu kutuyu işaretli bırakın.  Kartlarınızın hikaye anlatma veya panoramik bir görsel gösterme amacıyla belirli bir sırada görüntülenmesini istiyorsanız kutunun işaretini kaldırın.</li><img src='course/en/images/05_step_by_step/am_steps_3-6.png'><li>Dönen reklamınızda yer almasını istediğiniz kart sayısını eklemek için <b>+</b> düğmesine tıklayın.</li><li>Ardından, her bir kart için <b>Görsel</b> ve <b>Video/Slayt gösterisi</b> arasından seçim yapın.</li><li>Kreatifinizi yükleyin, URL adresini girin ve her bir kart için açıklama ekleyin.</li><li>İşiniz bittiğinde, reklamınızı tamamlamak için <b>Sipariş Ver</b>’e tıklayın.</li></ol>"
          },
          {
            "resultsFor": ["c-410"],
            "condition": "is",
            "value": "3",
            "response": "<h2>Power Editor’da dönen reklam oluşturma</h2><br><ol><li><b>Kampanya Oluştur</b>’a tıklayın.</li><li>Kampanya düzeyinde dönen formatı destekleyen bir reklam verme amacı seçin.</li><li>Reklam düzeyinde <b>Reklam Oluştur</b>’u ve ardından <b>Bir döngüde birden fazla görseli veya videosu olan reklam</b>’ı seçin.<br><img src='course/en/images/05_step_by_step/pe_step_3.png'></li><br><li>Dönen reklamınızda yer almasını istediğiniz kart sayısını eklemek için <b>+</b> düğmesine tıklayın.</li><li>Ardından, her bir kart için <b>Görsel</b> ve <b>Video/Slayt gösterisi</b> arasından seçim yapın.</li><li>Kreatifinizi yükleyin, URL adresini girin ve her bir kart için açıklama ekleyin.</li><li>Kreatif Optimizasyonu kısmında <b>En iyi performans gösteren kartları otomatik olarak başta göster</b> onay kutusu varsayılan olarak işaretlenir.  Reklamdaki dönen kartların performans sırasına göre görüntülenmesini istiyorsanız, bu kutuyu işaretli bırakın.  Kartlarınızın hikaye anlatma veya panoramik bir görsel gösterme amacıyla belirli bir sırada görüntülenmesini istiyorsanız kutunun işaretini kaldırın.</li><img src='course/en/images/05_step_by_step/pe_step_7.png'><br><br><li>Reklamı tamamlamak için <b>Değişiklikleri Yükle</b>’ye tıklayın.</li></ol>"
          }
        ]
    },
    {
        "_id": "c-490",
        "_parentId": "b-490",
        "_type": "component",
        "_component": "co-jump",
        "_classes": "color-test",
        "_preLinkBody": "Çok sayıda konuya değindik.  Şimdi öğrendiklerimizi hızlıca gözden geçirelim: ",
        "_linkBody": "Bilgi Kontrolü",
        "_postLinkBody": ".",
        "_link": "#/id/co-300",
        "_graphic": "adapt/css/assets/icon_nextPage.png",
        "_pageLevelProgress": {
            "_isEnabled": false
        }
    },
    {
    "_id":"c-500",
    "_parentId":"b-500",
    "_type":"component",
    "_component":"mcq",
    "_classes":"",
    "_layout":"full",
    "_attempts":1,
    "_questionWeight":1,
    "_isRandom":false,
    "_selectable":3,
    "title": "Soru 1/4",
    "_setCompletionOn":"inview",
    "displayTitle": "Soru 1/4",
    "body": "Dönen reklamlar aşağıdaki platformlardan hangilerinde görüntülenebilir?  (Üç seçim yapın.)",
    "instruction": "",
    "_items": [
            {
                "text": "Facebook",
                "_shouldBeSelected":true
            },
            {
                "text": "Instagram",
                "_shouldBeSelected":true
            },
            {
                "text": "Messenger",
                "_shouldBeSelected":false
            },
            {
                "text": "Audience Network",
                "_shouldBeSelected":true
            }
        ],
        "_feedback":{
            "correct":"Doğru!  Dönen reklamlar Facebook, Instagram ve Audience Network’te kullanılabilir.",
            "_incorrect": {
                "notFinal": "Dönen reklamlar Facebook, Instagram ve Audience Network’te kullanılabilir.",
                "final": "Üzgünüz, cevabınız doğru değil! Dönen reklamlar Facebook, Instagram ve Audience Network’te kullanılabilir."
            },
            "_partlyCorrect": {
                "notFinal": "Dönen reklamlar Facebook, Instagram ve Audience Network’te kullanılabilir.",
                "final": "Dönen reklamlar Facebook, Instagram ve Audience Network’te kullanılabilir."
            }
        },
        "_pageLevelProgress": {
            "_isEnabled": true
        }
    },
    {
        "_id":"c-510",
        "_parentId":"b-510",
        "_type":"component",
        "_component":"mcq",
        "_classes":"",
        "_layout":"full",
        "_attempts":1,
        "_questionWeight":1,
        "_isRandom":false,
        "_selectable":3,
        "_setCompletionOn":"inview",
        "title": "Soru 2/4",
        "displayTitle": "Soru 2/4",
        "body": "Dönen reklamları kullanmanın bazı avantajları nelerdir?  (Üç seçim yapın.)",
        "instruction": "",
        "_items": [
            {
                "text": "Dönen format, belirli bir reklam ünitesinde birden fazla görsel sergilemenize olanak tanıdığı için insanları sitenizdeki farklı sayfalara yönlendirebilirsiniz.",
                "_shouldBeSelected":true
            },
            {
                "text": "Dönen format, her karta farklı bir eylem çağrısı düğmesi eklemenize olanak tanıyarak, tek bir reklam ünitesinde birden fazla hedefe ulaşma esnekliği sunar.",
                "_shouldBeSelected":false
            },
            {
                "text": "Dönen reklamlar, reklam yayınını iyileştirir ve daha düşük dönüşüm başına ücret sağlar.",
                "_shouldBeSelected":true
            },
            {
                "text": "Dönen reklamlar, potansiyel müşterileriniz için oldukça ilgi çekici bir deneyim sunar.",
                "_shouldBeSelected":true
            }
        ],
        "_feedback":{
            "correct":"Doğru! Dönen format, belirli bir reklam ünitesinde birden fazla görsel sergilemenize olanak tanıdığı için insanları sitenizdeki farklı sayfalara yönlendirebilirsiniz.  Ayrıca, potansiyel müşterileriniz için oldukça ilgi çekici bir deneyimle birlikte daha iyi bir reklam yayını ve dönüşüm başına daha düşük ücret sağlar.",
            "_incorrect": {
                "notFinal": "Üzgünüz, cevabınız doğru değil!  Dönen format, belirli bir reklam ünitesinde birden fazla görsel sergilemenize olanak tanıdığı için insanları sitenizdeki farklı sayfalara yönlendirebilirsiniz.  Ayrıca, potansiyel müşterileriniz için oldukça ilgi çekici bir deneyimle birlikte daha iyi bir reklam yayını ve dönüşüm başına daha düşük ücret sağlar.",
                "final": "Üzgünüz, cevabınız doğru değil!  Dönen format, belirli bir reklam ünitesinde birden fazla görsel sergilemenize olanak tanıdığı için insanları sitenizdeki farklı sayfalara yönlendirebilirsiniz.  Ayrıca, potansiyel müşterileriniz için oldukça ilgi çekici bir deneyimle birlikte daha iyi bir reklam yayını ve dönüşüm başına daha düşük ücret sağlar."
            },
            "_partlyCorrect": {
                "notFinal": "Dönen format, belirli bir reklam ünitesinde birden fazla görsel sergilemenize olanak tanıdığı için insanları sitenizdeki farklı sayfalara yönlendirebilirsiniz.  Ayrıca, potansiyel müşterileriniz için oldukça ilgi çekici bir deneyimle birlikte daha iyi bir reklam yayını ve dönüşüm başına daha düşük ücret sağlar.",
                "final": "Dönen format, belirli bir reklam ünitesinde birden fazla görsel sergilemenize olanak tanıdığı için insanları sitenizdeki farklı sayfalara yönlendirebilirsiniz.  Ayrıca, potansiyel müşterileriniz için oldukça ilgi çekici bir deneyimle birlikte daha iyi bir reklam yayını ve dönüşüm başına daha düşük ücret sağlar."
            }
        },
        "_pageLevelProgress": {
            "_isEnabled": true
        }
    },
    {
        "_id":"c-520",
        "_parentId":"b-520",
        "_type":"component",
        "_component":"mcq",
        "_classes":"",
        "_layout":"full",
        "_attempts":1,
        "_questionWeight":1,
        "_isRandom":false,
        "_selectable":4,
        "title": "Soru 3/4",
        "_setCompletionOn":"inview",
        "displayTitle": "Soru 3/4",
        "body": "Aşağıdaki formatlardan hangileri döngüde kullanılabilir? (Uygun tüm seçenekleri işaretleyin.)",
        "instruction": "",
        "_items": [
            {
                "text": "Fotoğraflar",
                "_shouldBeSelected":true
            },
            {
                "text": "Videolar",
                "_shouldBeSelected":true
            },
            {
                "text": "Slayt Gösterileri",
                "_shouldBeSelected":true
            },
            {
                "text": "Sinemagraflar",
                "_shouldBeSelected":true
            }
        ],
        "_feedback":{
            "correct":"Doğru!  Yukarıdaki formatlardan tümü döngüde kullanılabilir.",
            "_incorrect": {
                "notFinal": "Üzgünüz, cevabınız doğru değil!  Yukarıdaki formatlardan tümü döngüde kullanılabilir.",
                "final": "Üzgünüz, cevabınız doğru değil!  Yukarıdaki formatlardan tümü döngüde kullanılabilir."
            },
            "_partlyCorrect": {
                "notFinal": "Yukarıdaki formatlardan tümü döngüde kullanılabilir.",
                "final": "Yukarıdaki formatlardan tümü döngüde kullanılabilir."
            }
        },
        "_pageLevelProgress": {
            "_isEnabled": true
        }
    },
    {
        "_id":"c-530",
        "_parentId":"b-530",
        "_type":"component",
        "_component":"mcq",
        "_classes":"",
        "_layout":"full",
        "_attempts":1,
        "_questionWeight":1,
        "_isRandom":false,
        "_selectable":1,
        "_setCompletionOn":"inview",
        "title": "Soru 4/4",
        "displayTitle": "Soru 4/4",
        "body": "Facebook’ta dinamik reklamlar oluştururken döngü ünitenizde sergileyebileceğiniz maksimum ürün sayısı nedir?",
        "instruction": "",
        "_items": [
            {
                "text": "3",
                "_shouldBeSelected":false
            },
            {
                "text": "5",
                "_shouldBeSelected":false
            },
            {
                "text": "10",
                "_shouldBeSelected":false
            },
            {
                "text": "30",
                "_shouldBeSelected":true
            }
        ],
        "_feedback":{
            "correct":"Doğru!  Facebook’ta dinamik reklamlar oluştururken döngü ünitenizde 30 adede kadar ürün sergileyebilirsiniz.",
            "_incorrect": {
                "notFinal": "Üzgünüz, cevabınız doğru değil!  Facebook’ta dinamik reklamlar oluştururken döngü ünitenizde 30 adede kadar ürün sergileyebilirsiniz.",
                "final": "Üzgünüz, cevabınız doğru değil!  Facebook’ta dinamik reklamlar oluştururken döngü ünitenizde 30 adede kadar ürün sergileyebilirsiniz."
            }
        },
        "_pageLevelProgress": {
            "_isEnabled": true
        }
    },
    {
        "_id":"c-590",
        "_parentId":"b-590",
        "_type":"component",
        "_component":"co-jump",
        "_classes":"color-test",
        "_autoComplete":true,
        "_preLinkBody":"Bu kursu bitirmek için aşağıdaki düğmeye tıklayın. Not: Tüm modüller için durum çubuklarının tamamlandığından emin olmak için <a href='#'>buraya tıklayın</a>.<br>",
        "_linkBody":"<div style = 'text-align:center;padding:8px;'><button class='buttons-action'><b>BU KURSU BİTİRDİM</b></button></div><br> ",
        "_postLinkBody":"",
        "_link":"",
        "_pageLevelProgress": {
            "_isEnabled": false
        }
    }


]
